[{"id": "83480376-c524-4f40-a701-44a4297fd261",
  "subject": "test_normal_1",
  "text": "Normal_111",
  "startDateTime": "2018-01-18T07:00:00.000Z",
  "endDateTime": "2018-12-24T22:00:00.000Z"

},{"id": "83480376-c524-4f40-a701-44a7291fd261",

  "subject": "test2",
  "text": "test2",
  "startDateTime": "2018-10-18T07:00:00.000Z",
  "endDateTime": "2018-12-25T22:00:00.000Z"

},{"id": "83480376-c524-4f40-a701-44a7797fd261",

  "subject": "test3",
  "text": "test3 ",

  "startDateTime": "2018-12-18T07:00:00.000Z",
  "endDateTime": "2018-04-26T22:00:00.000Z"

},{"id": "83480376-c524-4f40-a701-44a7597fd261",

  "subject": "test4",
  "text": "test4",
  "startDateTime": "2018-01-18T07:00:00.000Z",
  "endDateTime": "2018-04-27T22:00:00.000Z"

},{"id": "83480326-c524-4f40-a701-44a7297fd261",

  "subject": "test_norma5_5 ",

  "text": "Norma5_555",
  "startDateTime": "2018-06-27T07:00:00.000Z",
  "endDateTime": "2018-06-28T22:19:00.000Z"

}]